2019-05-02 15:17:24; Would you rather d or b ?
2019-05-02 21:46:49 Would you rather lose a year of your life or fall down every staircase you come across?
2019-05-03 00:47:03 Would you rather have no one to show up for your funeral or have hands that kept growing as you got older?
2019-05-03 13:00:03 Would you rather lick a stinky armpit or wear a diaper and act like a baby?
2019-05-03 22:15:03 Would you rather sell one of your organs or lose your sight?
2019-05-04 13:36:27 Would you rather wake up naked (without any memory of the night before) next to the Burger King telling you "You had it your way" or lose your right foot?
